{
  "version": "v4",
  "repo": "borisyankov/DefinitelyTyped",
  "ref": "master",
  "path": "typings",
  "bundle": "typings/tsd.d.ts",
  "installed": {
    "redux-actions/redux-actions.d.ts": {
      "commit": "5e269cec94f666c298625948c5c5ff8224846e33"
    },
    "redux/redux.d.ts": {
      "commit": "7b3d5a6ea5acda4a81f71309f1cc62354e63b681"
    },
    "redux-thunk/redux-thunk.d.ts": {
      "commit": "5e269cec94f666c298625948c5c5ff8224846e33"
    },
    "react/react.d.ts": {
      "commit": "7b3d5a6ea5acda4a81f71309f1cc62354e63b681"
    },
    "react/react-dom.d.ts": {
      "commit": "7b3d5a6ea5acda4a81f71309f1cc62354e63b681"
    },
    "react-redux/react-redux.d.ts": {
      "commit": "7b3d5a6ea5acda4a81f71309f1cc62354e63b681"
    },
    "node-uuid/node-uuid-cjs.d.ts": {
      "commit": "7b3d5a6ea5acda4a81f71309f1cc62354e63b681"
    },
    "node-uuid/node-uuid-base.d.ts": {
      "commit": "7b3d5a6ea5acda4a81f71309f1cc62354e63b681"
    }
  }
}
